\BOOKMARK [1][-]{section.1}{Problem introduction}{}% 1
\BOOKMARK [1][-]{section.2}{Implementation}{}% 2
\BOOKMARK [2][-]{subsection.2.1}{Mathematical interpretation}{section.2}% 3
\BOOKMARK [2][-]{subsection.2.2}{Equation derivation and implementation}{section.2}% 4
\BOOKMARK [1][-]{section.3}{Result evaluation}{}% 5
\BOOKMARK [2][-]{subsection.3.1}{Implementation problems}{section.3}% 6
\BOOKMARK [2][-]{subsection.3.2}{Final results}{section.3}% 7
\BOOKMARK [2][-]{subsection.3.3}{Possible optimizations}{section.3}% 8
